…
`get_collections` function can be used to obtain Zomato Restaurant
Collections in a City. The location/City input can be provided in the
following ways -

  - Using Zomato City ID
  - Using coordinates of any location within a city

List of all restaurants listed in any particular Zomato Collection can
be obtained using the `get_search` function with Collection ID and
Zomato City ID as the input.

``` r
get_collections(city_id = 74)
#> # A tibble: 36 x 7
#>    collection_coll~ collection_res_~ collection_imag~ collection_url
#>               <int>            <int> <chr>            <chr>         
#>  1                1               30 https://b.zmtcd~ https://www.z~
#>  2           306459               60 https://b.zmtcd~ https://www.z~
#>  3           306729               26 https://b.zmtcd~ https://www.z~
#>  4           274852              240 https://b.zmtcd~ https://www.z~
#>  5           306749               31 https://b.zmtcd~ https://www.z~
#>  6               71               89 https://b.zmtcd~ https://www.z~
#>  7           306754               23 https://b.zmtcd~ https://www.z~
#>  8               22               64 https://b.zmtcd~ https://www.z~
#>  9              537               76 https://b.zmtcd~ https://www.z~
#> 10               92               19 https://b.zmtcd~ https://www.z~
#> # ... with 26 more rows, and 3 more variables: collection_title <chr>,
#> #   collection_description <chr>, collection_share_url <chr>
```
…
